0000.002 (0) Opened log file at time: Wed, 04 Jun 2014 17:42:32 +0000 on http://www.falkenstein.com
0000.004 (0) UpdraftPlus WordPress backup plugin (http://updraftplus.com): 1.8.12 WP: 3.8.2 PHP: 5.3.24 (Linux p3nlhg510.shr.prod.phx3.secureserver.net 2.6.32-531.1.2.lve1.2.54.el6.nfsfixes.x86_64 #1 SMP Wed Apr 2 14:06:52 MST 2014 x86_64) MySQL: 5.0.96-log Server: Apache safe_mode: 0 max_execution_time: 900 memory_limit: 256M (used: 2.7M | 2.8M) multisite: N mcrypt: Y ZipArchive::addFile: Y W3TC/ObjectCache: N
0000.006 (0) Free space on disk containing Updraft's temporary directory: 1696064.1 Mb
0000.029 (0) Tasks: Backup files: 1 (schedule: unset) Backup DB: 1 (schedule: unset)
0000.043 (0) Requesting semaphore lock (fd)
0000.051 (0) Set semaphore last lock (fd) time to 2014-06-04 17:42:32
0000.053 (0) Semaphore lock (fd) complete
0000.066 (0) Backup run: resumption=0, nonce=bd9a7c8986ee, begun at=1401903752 (0s ago), job type=backup
0000.068 (0) Scheduling a resumption (1) after 300 seconds (1401904052) in case this run gets aborted
0000.131 (0) Checking if we have a zip executable available
0000.132 (0) Testing: /usr/bin/zip
0000.161 (0) Output: zip warning: binziptest/test.zip not found or empty
0000.170 (0) Output: adding: binziptest/subdir1/	(in=0) (out=0) (stored 0%)
0000.171 (0) Output: adding: binziptest/subdir1/subdir2/	(in=0) (out=0) (stored 0%)
0000.172 (0) Output: adding: binziptest/subdir1/subdir2/test.html	(in=127) (out=105) (deflated 17%)
0000.174 (0) Output: total bytes=127, compressed=105 -> 17% savings
0000.202 (0) Output: adding: binziptest/subdir1/subdir2/test2.html	(in=134) (out=109) (deflated 19%)
0000.204 (0) Output: total bytes=261, compressed=214 -> 18% savings
0000.232 (0) Working binary zip found: /usr/bin/zip
0000.245 (0) Zip engine: found/will use a binary zip: /usr/bin/zip
0000.250 (0) Creation of backups of directories: beginning
0000.296 (0) Beginning creation of dump of plugins (split every: 800 Mb)
0005.600 (0) Total entities for the zip file: 272 directories, 1781 files, 35.1 Mb
0005.604 (0) Adding batch to zip file (UpdraftPlus_BinZip): over 1.5 seconds have passed since the last write (0 Mb, 1 (1) files added so far); re-opening (prior size: 0 Kb)
0005.765 (0) backup_2014-06-04-1042_Dr_Lynda_Falkenstein_bd9a7c8986ee-plugins.zip.tmp: size is now: 0.10 Mb
0005.970 (0) Zip: backup_2014-06-04-1042_Dr_Lynda_Falkenstein_bd9a7c8986ee-plugins.zip.tmp: 100 files added (on-disk size: 66.9 Kb)
0006.161 (0) Zip: backup_2014-06-04-1042_Dr_Lynda_Falkenstein_bd9a7c8986ee-plugins.zip.tmp: 200 files added (on-disk size: 66.9 Kb)
0006.337 (0) Zip: backup_2014-06-04-1042_Dr_Lynda_Falkenstein_bd9a7c8986ee-plugins.zip.tmp: 300 files added (on-disk size: 66.9 Kb)
0006.666 (0) Zip: backup_2014-06-04-1042_Dr_Lynda_Falkenstein_bd9a7c8986ee-plugins.zip.tmp: 400 files added (on-disk size: 66.9 Kb)
0007.351 (0) Zip: backup_2014-06-04-1042_Dr_Lynda_Falkenstein_bd9a7c8986ee-plugins.zip.tmp: 500 files added (on-disk size: 66.9 Kb)
0007.360 (0) Adding batch to zip file (UpdraftPlus_BinZip): over 500 files added on this batch (15.4 Mb, 1781 files batched, 501 (502) added so far); re-opening (prior size: 66.9 Kb)
0016.072 (0) backup_2014-06-04-1042_Dr_Lynda_Falkenstein_bd9a7c8986ee-plugins.zip.tmp: size is now: 6.10 Mb
0016.189 (0) Zip: backup_2014-06-04-1042_Dr_Lynda_Falkenstein_bd9a7c8986ee-plugins.zip.tmp: 600 files added (on-disk size: 6255.8 Kb)
0016.273 (0) Zip: backup_2014-06-04-1042_Dr_Lynda_Falkenstein_bd9a7c8986ee-plugins.zip.tmp: 700 files added (on-disk size: 6255.8 Kb)
0016.360 (0) Zip: backup_2014-06-04-1042_Dr_Lynda_Falkenstein_bd9a7c8986ee-plugins.zip.tmp: 800 files added (on-disk size: 6255.8 Kb)
0016.479 (0) Zip: backup_2014-06-04-1042_Dr_Lynda_Falkenstein_bd9a7c8986ee-plugins.zip.tmp: 900 files added (on-disk size: 6255.8 Kb)
0016.571 (0) Zip: backup_2014-06-04-1042_Dr_Lynda_Falkenstein_bd9a7c8986ee-plugins.zip.tmp: 1000 files added (on-disk size: 6255.8 Kb)
0016.575 (0) Adding batch to zip file (UpdraftPlus_BinZip): over 500 files added on this batch (5.2 Mb, 1781 files batched, 501 (1003) added so far); re-opening (prior size: 6255.8 Kb)
0021.137 (0) backup_2014-06-04-1042_Dr_Lynda_Falkenstein_bd9a7c8986ee-plugins.zip.tmp: size is now: 8.20 Mb
0021.233 (0) Zip: backup_2014-06-04-1042_Dr_Lynda_Falkenstein_bd9a7c8986ee-plugins.zip.tmp: 1100 files added (on-disk size: 8426.2 Kb)
0021.413 (0) Zip: backup_2014-06-04-1042_Dr_Lynda_Falkenstein_bd9a7c8986ee-plugins.zip.tmp: 1200 files added (on-disk size: 8426.2 Kb)
0021.607 (0) Zip: backup_2014-06-04-1042_Dr_Lynda_Falkenstein_bd9a7c8986ee-plugins.zip.tmp: 1300 files added (on-disk size: 8426.2 Kb)
0021.713 (0) Zip: backup_2014-06-04-1042_Dr_Lynda_Falkenstein_bd9a7c8986ee-plugins.zip.tmp: 1400 files added (on-disk size: 8426.2 Kb)
0021.897 (0) Zip: backup_2014-06-04-1042_Dr_Lynda_Falkenstein_bd9a7c8986ee-plugins.zip.tmp: 1500 files added (on-disk size: 8426.2 Kb)
0021.901 (0) Adding batch to zip file (UpdraftPlus_BinZip): over 500 files added on this batch (9.1 Mb, 1781 files batched, 501 (1504) added so far); re-opening (prior size: 8426.2 Kb)
0029.197 (0) backup_2014-06-04-1042_Dr_Lynda_Falkenstein_bd9a7c8986ee-plugins.zip.tmp: size is now: 12.00 Mb
0029.335 (0) Zip: backup_2014-06-04-1042_Dr_Lynda_Falkenstein_bd9a7c8986ee-plugins.zip.tmp: 1600 files added (on-disk size: 12270.5 Kb)
0029.457 (0) Zip: backup_2014-06-04-1042_Dr_Lynda_Falkenstein_bd9a7c8986ee-plugins.zip.tmp: 1700 files added (on-disk size: 12270.5 Kb)
0034.613 (0) Created plugins zip (0) - 14247.7 Kb in 34.3 s (415.6 Kb/s) (SHA1 checksum: f5af9126f98fae4e94aced6ca5e7fa7c8789a1d7)
0034.622 (0) Beginning creation of dump of themes (split every: 800 Mb)
0035.261 (0) Total entities for the zip file: 31 directories, 273 files, 4.2 Mb
0035.315 (0) Zip: backup_2014-06-04-1042_Dr_Lynda_Falkenstein_bd9a7c8986ee-themes.zip.tmp: 100 files added (on-disk size: 0 Kb)
0035.393 (0) Zip: backup_2014-06-04-1042_Dr_Lynda_Falkenstein_bd9a7c8986ee-themes.zip.tmp: 200 files added (on-disk size: 0 Kb)
0038.728 (0) backup_2014-06-04-1042_Dr_Lynda_Falkenstein_bd9a7c8986ee-themes.zip.tmp: size is now: 3.60 Mb
0039.118 (0) Created themes zip (0) - 3644.4 Kb in 4.5 s (815.1 Kb/s) (SHA1 checksum: 3b4e6787d06d00002f0a1203ee11abd07b5a0eb6)
0039.341 (0) Exclusion option setting (uploads): backup*,*backups,backwpup*,wp-clone
0039.342 (0) Looking for candidates to back up in: /home/content/18/9213918/html/wp-content/uploads
0039.345 (0) finding files: 2013: adding to list (1)
0039.350 (0) finding files: wpcf7_captcha: adding to list (2)
0039.352 (0) finding files: 2014: adding to list (3)
0039.361 (0) finding files: db-backup: adding to list (4)
0039.363 (0) Beginning creation of dump of uploads (split every: 800 Mb)
0040.024 (0) Total entities for the zip file: 16 directories, 433 files, 57.5 Mb
0040.071 (0) Zip: backup_2014-06-04-1042_Dr_Lynda_Falkenstein_bd9a7c8986ee-uploads.zip.tmp: 100 files added (on-disk size: 0 Kb)
0040.107 (0) Adding batch to zip file (UpdraftPlus_BinZip): over 25 Mb added on this batch (26 Mb, 433 files batched, 162 (162) added so far); re-opening (prior size: 0 Kb)
0048.320 (0) backup_2014-06-04-1042_Dr_Lynda_Falkenstein_bd9a7c8986ee-uploads.zip.tmp: size is now: 25.80 Mb
0048.346 (0) A useful amount of data was added after this amount of zip processing: 9.8 s (normalised: 9.5 s, rate: 2708 Kb/s)
0048.460 (0) Zip: backup_2014-06-04-1042_Dr_Lynda_Falkenstein_bd9a7c8986ee-uploads.zip.tmp: 200 files added (on-disk size: 26436 Kb)
0048.765 (0) Zip: backup_2014-06-04-1042_Dr_Lynda_Falkenstein_bd9a7c8986ee-uploads.zip.tmp: 300 files added (on-disk size: 26436 Kb)
0048.967 (0) Adding batch to zip file (UpdraftPlus_BinZip): over 25 Mb added on this batch (25.4 Mb, 433 files batched, 213 (375) added so far); re-opening (prior size: 26436 Kb)
0059.366 (0) backup_2014-06-04-1042_Dr_Lynda_Falkenstein_bd9a7c8986ee-uploads.zip.tmp: size is now: 50.00 Mb
0059.370 (0) A useful amount of data was added after this amount of zip processing: 11.8 s (normalised: 11.7 s, rate: 2193.2 Kb/s)
0059.430 (0) Zip: backup_2014-06-04-1042_Dr_Lynda_Falkenstein_bd9a7c8986ee-uploads.zip.tmp: 400 files added (on-disk size: 51162 Kb)
0068.757 (0) Created uploads zip (0) - 55703.3 Kb in 29.4 s (1895.8 Kb/s) (SHA1 checksum: 21298504f05903fe1159824cb0d94df645624511)
0068.797 (0) Beginning backup of other directories found in the content directory (index: 0)
0068.804 (0) Exclusion option setting (others): upgrade,cache,updraft,backup*,*backups
0068.807 (0) Looking for candidates to back up in: /home/content/18/9213918/html/wp-content
0068.817 (0) finding files: index.php: adding to list (1)
0068.819 (0) finding files: upgrade: skipping: excluded by options
0068.824 (0) finding files: plugins: skipping: this is the plugins directory
0068.826 (0) finding files: themes: skipping: this is the themes directory
0068.832 (0) finding files: uploads: skipping: this is the uploads directory
0068.835 (0) finding files: updraft: skipping: this is the updraft directory
0068.852 (0) finding files: backup-bJnqfQ35J2VM: skipping: excluded by options (glob)
0068.938 (0) Total entities for the zip file: 0 directories, 1 files, 0 Mb
0069.010 (0) backup_2014-06-04-1042_Dr_Lynda_Falkenstein_bd9a7c8986ee-others.zip.tmp: size is now: 0.00 Mb
0069.034 (0) Created others zip (0) - 0.2 Kb in 0.1 s (2 Kb/s) (SHA1 checksum: c463dce458286812f6fcddfe7e5a2991a8872e4e)
0069.049 (0) Saving backup status to database (elements: 8)
0069.054 (0) Beginning creation of database dump
0069.082 (0) Testing: /usr/bin/mysqldump
0069.160 (0) Binary mysqldump: error (code: 2)
0069.235 (0) Table wp_options: Total expected rows (approximate): 229
0069.510 (0) Table wp_options: Total rows added: 228 in 0.27 seconds
0069.521 (0) Table wp_options: finishing file (backup_2014-06-04-1042_Dr_Lynda_Falkenstein_bd9a7c8986ee-db-table-wp_options.table.gz - 64 Kb)
0069.547 (0) Table wp_users: Total expected rows (approximate): 4
0069.571 (0) Table wp_users: Total rows added: 4 in 0.02 seconds
0069.579 (0) Table wp_users: finishing file (backup_2014-06-04-1042_Dr_Lynda_Falkenstein_bd9a7c8986ee-db-table-wp_users.table.gz - 0 Kb)
0069.611 (0) Table wp_usermeta: Total expected rows (approximate): 77
0069.628 (0) Table wp_usermeta: Total rows added: 77 in 0.01 seconds
0069.630 (0) Table wp_usermeta: finishing file (backup_2014-06-04-1042_Dr_Lynda_Falkenstein_bd9a7c8986ee-db-table-wp_usermeta.table.gz - 0 Kb)
0069.661 (0) Table wp_commentmeta: Total expected rows (approximate): 0
0069.675 (0) Table wp_commentmeta: Total rows added: 0 in 0.01 seconds
0069.676 (0) Table wp_commentmeta: finishing file (backup_2014-06-04-1042_Dr_Lynda_Falkenstein_bd9a7c8986ee-db-table-wp_commentmeta.table.gz - 0 Kb)
0069.705 (0) Table wp_comments: Total expected rows (approximate): 0
0069.714 (0) Table wp_comments: Total rows added: 0 in 0.01 seconds
0069.715 (0) Table wp_comments: finishing file (backup_2014-06-04-1042_Dr_Lynda_Falkenstein_bd9a7c8986ee-db-table-wp_comments.table.gz - 0 Kb)
0069.741 (0) Table wp_links: Total expected rows (approximate): 0
0069.747 (0) Table wp_links: Total rows added: 0 in 0.01 seconds
0069.752 (0) Table wp_links: finishing file (backup_2014-06-04-1042_Dr_Lynda_Falkenstein_bd9a7c8986ee-db-table-wp_links.table.gz - 0 Kb)
0069.768 (0) Table wp_postmeta: Total expected rows (approximate): 795
0069.830 (0) Table wp_postmeta: Total rows added: 795 in 0.06 seconds
0069.832 (0) Table wp_postmeta: finishing file (backup_2014-06-04-1042_Dr_Lynda_Falkenstein_bd9a7c8986ee-db-table-wp_postmeta.table.gz - 0 Kb)
0069.861 (0) Table wp_posts: Total expected rows (approximate): 435
0070.361 (0) Table wp_posts: Total rows added: 435 in 0.50 seconds
0070.366 (0) Table wp_posts: finishing file (backup_2014-06-04-1042_Dr_Lynda_Falkenstein_bd9a7c8986ee-db-table-wp_posts.table.gz - 96 Kb)
0070.392 (0) Table wp_term_relationships: Total expected rows (approximate): 25
0070.398 (0) Table wp_term_relationships: Total rows added: 25 in 0.00 seconds
0070.399 (0) Table wp_term_relationships: finishing file (backup_2014-06-04-1042_Dr_Lynda_Falkenstein_bd9a7c8986ee-db-table-wp_term_relationships.table.gz - 0 Kb)
0070.421 (0) Table wp_term_taxonomy: Total expected rows (approximate): 5
0070.427 (0) Table wp_term_taxonomy: Total rows added: 5 in 0.00 seconds
0070.433 (0) Table wp_term_taxonomy: finishing file (backup_2014-06-04-1042_Dr_Lynda_Falkenstein_bd9a7c8986ee-db-table-wp_term_taxonomy.table.gz - 0 Kb)
0070.452 (0) Table wp_terms: Total expected rows (approximate): 5
0070.457 (0) Table wp_terms: Total rows added: 5 in 0.00 seconds
0070.459 (0) Table wp_terms: finishing file (backup_2014-06-04-1042_Dr_Lynda_Falkenstein_bd9a7c8986ee-db-table-wp_terms.table.gz - 0 Kb)
0070.487 (0) backup_2014-06-04-1042_Dr_Lynda_Falkenstein_bd9a7c8986ee-db-table-wp_options.table.gz (1/11): adding to final database dump
0070.661 (0) backup_2014-06-04-1042_Dr_Lynda_Falkenstein_bd9a7c8986ee-db-table-wp_users.table.gz (2/11): adding to final database dump
0070.685 (0) backup_2014-06-04-1042_Dr_Lynda_Falkenstein_bd9a7c8986ee-db-table-wp_usermeta.table.gz (3/11): adding to final database dump
0070.688 (0) backup_2014-06-04-1042_Dr_Lynda_Falkenstein_bd9a7c8986ee-db-table-wp_commentmeta.table.gz (4/11): adding to final database dump
0070.692 (0) backup_2014-06-04-1042_Dr_Lynda_Falkenstein_bd9a7c8986ee-db-table-wp_comments.table.gz (5/11): adding to final database dump
0070.700 (0) backup_2014-06-04-1042_Dr_Lynda_Falkenstein_bd9a7c8986ee-db-table-wp_links.table.gz (6/11): adding to final database dump
0070.702 (0) backup_2014-06-04-1042_Dr_Lynda_Falkenstein_bd9a7c8986ee-db-table-wp_postmeta.table.gz (7/11): adding to final database dump
0070.729 (0) backup_2014-06-04-1042_Dr_Lynda_Falkenstein_bd9a7c8986ee-db-table-wp_posts.table.gz (8/11): adding to final database dump
0070.903 (0) backup_2014-06-04-1042_Dr_Lynda_Falkenstein_bd9a7c8986ee-db-table-wp_term_relationships.table.gz (9/11): adding to final database dump
0070.919 (0) backup_2014-06-04-1042_Dr_Lynda_Falkenstein_bd9a7c8986ee-db-table-wp_term_taxonomy.table.gz (10/11): adding to final database dump
0070.924 (0) backup_2014-06-04-1042_Dr_Lynda_Falkenstein_bd9a7c8986ee-db-table-wp_terms.table.gz (11/11): adding to final database dump
0070.943 (0) backup_2014-06-04-1042_Dr_Lynda_Falkenstein_bd9a7c8986ee-db.gz: finished writing out complete database file (208 Kb)
0071.025 (0) Total database tables backed up: 11 (backup_2014-06-04-1042_Dr_Lynda_Falkenstein_bd9a7c8986ee-db.gz: checksum (SHA1): ccc979894f7d34929cd13a216e090815d78320d7)
0071.029 (0) Saving backup history
0071.042 (0) backup_2014-06-04-1042_Dr_Lynda_Falkenstein_bd9a7c8986ee-plugins.zip: plugins: This file has not yet been successfully uploaded: will queue
0071.045 (0) backup_2014-06-04-1042_Dr_Lynda_Falkenstein_bd9a7c8986ee-themes.zip: themes: This file has not yet been successfully uploaded: will queue
0071.048 (0) backup_2014-06-04-1042_Dr_Lynda_Falkenstein_bd9a7c8986ee-uploads.zip: uploads: This file has not yet been successfully uploaded: will queue
0071.050 (0) backup_2014-06-04-1042_Dr_Lynda_Falkenstein_bd9a7c8986ee-others.zip: others: This file has not yet been successfully uploaded: will queue
0071.053 (0) backup_2014-06-04-1042_Dr_Lynda_Falkenstein_bd9a7c8986ee-db.gz: db: This file has not yet been successfully uploaded: will queue
0071.064 (0) Requesting upload of the files that have not yet been successfully uploaded (5)
0071.076 (0) Cloud backup selection: 
0071.086 (0) No remote despatch: user chose no remote backup service
0071.101 (0) Retain: beginning examination of existing backup sets; user setting: retain_files=2, retain_db=2
0071.105 (0) Number of backup sets in history: 3
0071.110 (0) Examining backup set with datestamp: 1401903752 (Jun 04 2014 17:42:32)
0071.116 (0) 1401903752: db: this set includes a database (backup_2014-06-04-1042_Dr_Lynda_Falkenstein_bd9a7c8986ee-db.gz); db count is now 1
0071.123 (0) 1401903752: this backup set remains non-empty (1/1); will retain in history
0071.125 (0) Examining backup set with datestamp: 1397489109 (Apr 14 2014 15:25:09)
0071.128 (0) 1397489109: db: this set includes a database (backup_2014-04-14-0825_Dr_Lynda_Falkenstein_3ef52a7cecd4-db.gz); db count is now 2
0071.131 (0) 1397489109: this backup set remains non-empty (1/1); will retain in history
0071.132 (0) Examining backup set with datestamp: 1395162714 (Mar 18 2014 17:11:54)
0071.135 (0) 1395162714: db: this set includes a database (backup_2014-03-18-1011_Dr_Lynda_Falkenstein_559ddae2ca30-db.gz); db count is now 3
0071.136 (0) 1395162714: db: over retain limit (2); will delete this database
0071.142 (0) Delete file: backup_2014-03-18-1011_Dr_Lynda_Falkenstein_559ddae2ca30-db.gz, service=none
0071.146 (0) Deleting local copy (backup_2014-03-18-1011_Dr_Lynda_Falkenstein_559ddae2ca30-db.gz)
0071.157 (0) plugins: 1395162714: over retain limit (2); will delete this file (backup_2014-03-18-1011_Dr_Lynda_Falkenstein_559ddae2ca30-plugins.zip)
0071.158 (0) themes: 1395162714: over retain limit (2); will delete this file (backup_2014-03-18-1011_Dr_Lynda_Falkenstein_559ddae2ca30-themes.zip)
0071.162 (0) uploads: 1395162714: over retain limit (2); will delete this file (backup_2014-03-18-1011_Dr_Lynda_Falkenstein_559ddae2ca30-uploads.zip)
0071.163 (0) others: 1395162714: over retain limit (2); will delete this file (backup_2014-03-18-1011_Dr_Lynda_Falkenstein_559ddae2ca30-others.zip)
0071.167 (0) Delete file: backup_2014-03-18-1011_Dr_Lynda_Falkenstein_559ddae2ca30-plugins.zip, service=none
0071.171 (0) Deleting local copy (backup_2014-03-18-1011_Dr_Lynda_Falkenstein_559ddae2ca30-plugins.zip)
0071.173 (0) Delete file: backup_2014-03-18-1011_Dr_Lynda_Falkenstein_559ddae2ca30-themes.zip, service=none
0071.175 (0) Deleting local copy (backup_2014-03-18-1011_Dr_Lynda_Falkenstein_559ddae2ca30-themes.zip)
0071.178 (0) Delete file: backup_2014-03-18-1011_Dr_Lynda_Falkenstein_559ddae2ca30-uploads.zip, service=none
0071.182 (0) Deleting local copy (backup_2014-03-18-1011_Dr_Lynda_Falkenstein_559ddae2ca30-uploads.zip)
0071.191 (0) Delete file: backup_2014-03-18-1011_Dr_Lynda_Falkenstein_559ddae2ca30-others.zip, service=none
0071.198 (0) Deleting local copy (backup_2014-03-18-1011_Dr_Lynda_Falkenstein_559ddae2ca30-others.zip)
0071.205 (0) 1395162714: this backup set is now empty; will remove from history
0071.207 (0) 1395162714: deleting log file (log.559ddae2ca30.txt)
0071.213 (0) Retain: saving new backup history (sets now: 2) and finishing retain operation
0071.226 (0) Resume backup (bd9a7c8986ee, 0): finish run
0071.232 (0) Decremented the semaphore (fd) by 1
0071.242 (0) Semaphore (fd) unlocked
0071.243 (0) There were no errors in the uploads, so the 'resume' event (1) is being unscheduled
0071.260 (0) No email will/can be sent - the user has not configured an email address.
0071.268 (0) The backup apparently succeeded and is now complete
